<?xml version="1.0" encoding="UTF-8"?>
<svg width="32px" height="32px" viewBox="0 0 32 32" version="1.1" xmlns="http://www.w3.org/2000/svg" xmlns:xlink="http://www.w3.org/1999/xlink">
    <defs>
        <circle id="path-1" cx="12" cy="12" r="12"></circle>
        <filter x="-50%" y="-50%" width="200%" height="200%" filterUnits="objectBoundingBox" id="filter-2">
            <feOffset dx="0" dy="2" in="SourceAlpha" result="shadowOffsetOuter1"></feOffset>
            <feGaussianBlur stdDeviation="2" in="shadowOffsetOuter1" result="shadowBlurOuter1"></feGaussianBlur>
            <feColorMatrix values="0 0 0 0 0   0 0 0 0 0   0 0 0 0 0  0 0 0 0.202445652 0" type="matrix" in="shadowBlurOuter1"></feColorMatrix>
        </filter>
    </defs>
    <g id="1280" stroke="none" stroke-width="1" fill="none" fill-rule="evenodd">
        <g id="4---выдача---врачи" transform="translate(-176.000000, -1124.000000)">
            <g id="список" transform="translate(160.000000, 366.000000)">
                <g id="врач-3" transform="translate(0.000000, 704.000000)">
                    <g id="fav" transform="translate(20.000000, 56.000000)">
                        <g id="плашка">
                            <use fill="black" fill-opacity="1" filter="url(#filter-2)" xlink:href="#path-1"></use>
                            <use fill="#FFFFFF" fill-rule="evenodd" xlink:href="#path-1"></use>
                        </g>
                        <path d="M19,10.4252565 C19,10.2076381 18.842989,10.0723953 18.5287313,10.0194043 L14.3053181,9.37554072 L12.412316,5.36163639 C12.3058149,5.12050426 12.1682829,5 12.0000442,5 C11.831835,5 11.6943914,5.12050426 11.5878019,5.36163639 L9.69471136,9.37554072 L5.47109193,10.0194043 C5.15706994,10.0723953 5,10.2076381 5,10.4252565 C5,10.5488197 5.07013629,10.6899642 5.21037941,10.8487517 L8.27291901,13.9716043 L7.54936589,18.3823384 C7.53813819,18.4647139 7.53256854,18.5236992 7.53256854,18.5588308 C7.53256854,18.6823322 7.56197863,18.7866766 7.62085776,18.8720183 C7.67970741,18.9574836 7.76799663,19 7.88584329,19 C7.98686313,19 8.09899279,18.9648684 8.22237962,18.8942343 L11.9999558,16.812106 L15.7777088,18.894018 C15.8955849,18.9646521 16.007744,19 16.1141272,19 C16.3443393,19 16.4593275,18.853232 16.4593275,18.5590471 C16.4593275,18.4826968 16.4564984,18.4238969 16.4508699,18.3824311 L15.7273757,13.9718514 L18.7813693,10.848968 C18.927182,10.6958349 19,10.5546286 19,10.4252565 Z M14.5662074,13.5746508 L15.1718255,17.2886541 L11.9999558,15.5329687 L8.81959901,17.2886541 L9.43382203,13.5746508 L6.85926012,10.9544865 L10.4098069,10.4075825 L11.9999263,7.03766531 L13.5899868,10.4075825 L17.1408283,10.9544865 L14.5662074,13.5746508 Z" id="star" fill="#9B9B9B"></path>
                    </g>
                </g>
            </g>
        </g>
    </g>
</svg>