<?xml version="1.0" encoding="UTF-8"?>
<svg width="26px" height="30px" viewBox="0 0 26 30" version="1.1" xmlns="http://www.w3.org/2000/svg" xmlns:xlink="http://www.w3.org/1999/xlink">

	<defs></defs>
	<g id="1280" stroke="none" stroke-width="1" fill="none" fill-rule="evenodd">
		<g id="7---карточка-врача" transform="translate(-202.000000, -798.000000)" fill="#338C0D">
			<g id="отзывы" transform="translate(160.000000, 716.000000)">
				<g id="1" transform="translate(0.000000, 73.000000)">
					<g id="маркер" transform="translate(30.000000, 0.000000)">
						<path d="M35.6281834,25.5827468 C36.8804237,25.6413417 37.9427399,24.6297096 37.9975746,23.3229923 C38.0524093,22.016275 37.171907,20.8415205 35.9186983,20.7850359 L27.5990774,19.7136916 C27.5990774,19.7136916 29.3328462,16.7395007 29.3328462,12.3328368 C29.3328462,9.39526771 27.2865317,9 26.0830737,9 C25.1363582,8.99962757 24.8814314,10.8808735 24.8814314,10.8808735 L24.8794946,10.8808735 C24.6651188,12.08716 24.3859824,13.1406279 23.4160257,15.0802205 C22.3302262,17.2541929 20.8515053,17.0502278 19.1251204,18.9865927 C18.8204429,19.3276104 18.411059,19.8904696 18.0120851,20.5830571 C17.9795233,20.619679 17.9491402,20.6709496 17.9197256,20.743076 C17.8841375,20.8289822 17.8415287,20.8885703 17.8040038,20.9680211 C17.7379117,21.0925353 17.672909,21.2170496 17.6089957,21.347771 C16.540506,22.4435713 14.8758556,22.3315953 14.1669992,22.3315953 C12.7451708,22.3315953 12.0004842,23.1788636 12.0004842,24.5534865 L12,34.7117674 C12,36.2539819 12.6152864,36.7741363 14.1671202,36.7741363 L16.3336352,36.7741363 C17.4243977,36.7741363 18.2785115,37.4154532 19.5835287,37.8850819 C21.3710428,38.5201917 24.0406328,38.9968965 28.6392418,38.9968965 C29.4434839,38.9968965 31.9379176,39 31.9379176,39 C32.7016087,39 33.3150794,38.6422231 33.7577515,38.2102094 C33.9262501,38.0459697 34.1020117,37.8073691 34.1771824,37.3418371 C34.1894082,37.2697106 34.2024814,36.967301 34.2005446,36.9264584 C34.2582845,35.5946644 33.473289,35.1124974 33.0285591,34.9606719 C33.0406638,34.956451 33.0326747,34.94503 33.0568843,34.9460231 L34.4686657,35.0108252 C35.7218744,35.0694201 36.9588627,34.1435701 36.9588627,32.5690787 C36.9588627,31.2634787 35.9269295,30.3427185 34.6778364,30.2800268 L35.4263965,30.3156555 C36.6794842,30.3721401 37.7387742,29.360508 37.7967562,28.0537907 C37.8513488,26.7471975 36.8804237,25.6414659 35.6281834,25.5827468 Z" id="Shape"></path>
					</g>
				</g>
			</g>
		</g>
	</g>
</svg>