<?xml version="1.0" encoding="UTF-8"?>
<svg width="30px" height="30px" viewBox="0 0 30 30" version="1.1" xmlns="http://www.w3.org/2000/svg" xmlns:xlink="http://www.w3.org/1999/xlink">
    <!-- Generator: sketchtool 41.2 (35397) - http://www.bohemiancoding.com/sketch -->
    <title>F766948B-7D1D-416C-9A80-C3423076FB6A</title>
    <desc>Created with sketchtool.</desc>
    <defs>
        <linearGradient x1="75.1432292%" y1="141.588542%" x2="9.53776042%" y2="-54.8502604%" id="linearGradient-1">
            <stop stop-color="#3023AE" offset="0%"></stop>
            <stop stop-color="#53A0FE" offset="47.5247532%"></stop>
            <stop stop-color="#B4ED50" offset="100%"></stop>
        </linearGradient>
    </defs>
    <g id="1280" stroke="none" stroke-width="1" fill="none" fill-rule="evenodd">
        <g id="1---главная" transform="translate(-884.000000, -100.000000)" fill="url(#linearGradient-1)">
            <g id="Group" transform="translate(770.000000, 100.000000)">
                <path d="M143.985701,23.6758065 C144.04927,24.1631457 143.900854,24.5868738 143.541076,24.9469907 L139.317141,29.1417429 C139.126588,29.353607 138.877862,29.5338472 138.570859,29.6819962 C138.263856,29.830353 137.962198,29.9256918 137.665886,29.9680127 C137.644713,29.9680127 137.58104,29.9734651 137.475125,29.9840583 C137.369417,29.9945995 137.231796,30 137.062415,30 C136.660031,30 136.008922,29.9311442 135.109086,29.7933806 C134.209251,29.6556171 133.108327,29.3165827 131.806316,28.7764332 C130.503993,28.2361799 129.027256,27.4256961 127.375845,26.3452934 C125.724433,25.2649426 123.967055,23.7817904 122.103866,21.8961485 C120.621784,20.4342867 119.393773,19.035984 118.419833,17.7012925 C117.445893,16.3664971 116.662507,15.1323891 116.069674,13.9989164 C115.476789,12.8654438 115.032164,11.8379032 114.735748,10.9162947 C114.439332,9.99468609 114.238192,9.20019594 114.132329,8.53282421 C114.026466,7.86545249 113.984121,7.34108899 114.005293,6.95973372 C114.026466,6.57837844 114.037052,6.3665144 114.037052,6.3241416 C114.079397,6.02753194 114.174674,5.72562568 114.322882,5.41842282 C114.47109,5.11121997 114.651058,4.86227972 114.862784,4.67160208 L119.086718,0.444914484 C119.383135,0.148304828 119.721896,0 120.103003,0 C120.378247,0 120.621732,0.079449015 120.833458,0.238347045 C121.045184,0.397245075 121.225151,0.593219312 121.373359,0.826269756 L124.771562,7.27752978 C124.962116,7.61651224 125.015047,7.98727431 124.930357,8.38981599 C124.845666,8.79235766 124.665699,9.13134013 124.390455,9.40676338 L122.834269,10.9639641 C122.791924,11.0063369 122.754872,11.0751927 122.723113,11.1705315 C122.691354,11.2658703 122.675475,11.3453193 122.675475,11.4088786 C122.760165,11.853793 122.950718,12.3622667 123.247135,12.9342996 C123.501206,13.4427733 123.892899,14.0624757 124.422214,14.7934066 C124.951529,15.5243375 125.703157,16.3664452 126.677097,17.3198333 C127.629864,18.2945118 128.476768,19.0518219 129.217809,19.592179 C129.958695,20.1322246 130.578201,20.5296255 131.075757,20.7838623 C131.573313,21.0380992 131.95442,21.1917006 132.219026,21.2445108 L132.615908,21.3240118 C132.658254,21.3240118 132.72722,21.30807 132.822393,21.2763424 C132.91767,21.2445108 132.986481,21.2074866 133.028878,21.1650618 L134.839084,19.3218447 C135.220398,18.9829141 135.664815,18.8134229 136.17301,18.8134229 C136.533048,18.8134229 136.818722,18.8769302 137.030448,19.0041005 L137.062155,19.0041005 L143.191572,22.6269756 C143.636353,22.9026066 143.900958,23.2520784 143.985701,23.6758065 Z" id="Shape"></path>
            </g>
        </g>
    </g>
</svg>