<svg width="30px" height="30px" viewBox="20 15 30 30" version="1.1" xmlns="http://www.w3.org/2000/svg" xmlns:xlink="http://www.w3.org/1999/xlink">
    <!-- Generator: Sketch 41.2 (35397) - http://www.bohemiancoding.com/sketch -->
    <desc>Created with Sketch.</desc>
    <defs>
        <circle id="path-1" cx="13.125" cy="13.125" r="13.125"></circle>
        <mask id="mask-2" maskContentUnits="userSpaceOnUse" maskUnits="objectBoundingBox" x="0" y="0" width="26.25" height="26.25" fill="white">
            <use xlink:href="#path-1"></use>
        </mask>
    </defs>
    <g id="иконка" stroke="none" stroke-width="1" fill="none" fill-rule="evenodd" transform="translate(20.000000, 15.000000)">
        <rect id="Rectangle-3" fill="#FFFFFF" transform="translate(24.375000, 24.375000) rotate(-45.000000) translate(-24.375000, -24.375000) " x="22.5" y="18.75" width="3.75" height="11.25" rx="1.875"></rect>
        <use id="Oval" stroke="#FFFFFF" mask="url(#mask-2)" stroke-width="8" xlink:href="#path-1"></use>
    </g>
</svg>